<?xml version="1.0" encoding="utf-8"?>
<!-- Generator: Adobe Illustrator 22.0.0, SVG Export Plug-In . SVG Version: 6.00 Build 0)  -->
<svg version="1.1" xmlns="http://www.w3.org/2000/svg" xmlns:xlink="http://www.w3.org/1999/xlink" x="0px" y="0px"
	 viewBox="0 0 1880.6 1554.7" style="enable-background:new 0 0 1880.6 1554.7;" xml:space="preserve">
<style type="text/css">
	.st0{fill:url(#path3928_1_);}
	.st1{clip-path:url(#SVGID_2_);fill:url(#rect3941_1_);}
	.st2{fill:url(#path3928-8_1_);}
	.st3{clip-path:url(#SVGID_4_);fill:url(#rect3941-5_1_);}
	.st4{fill:url(#SVGID_5_);}
	.st5{clip-path:url(#SVGID_7_);filter:url(#filter4281);}
	.st6{opacity:0.7843;fill:#FFFFFF;}
	.st7{clip-path:url(#SVGID_9_);filter:url(#filter4285);}
	.st8{clip-path:url(#SVGID_11_);filter:url(#filter3867);}
	.st9{opacity:0.5882;fill:#FFFFFF;}
	.st10{clip-path:url(#SVGID_13_);filter:url(#filter3909);}
	.st11{fill:#FFFFFF;}
	.st12{fill:#C9A700;fill-opacity:0.4894;}
	.st13{fill:url(#SVGID_14_);}
	.st14{fill:url(#SVGID_15_);}
	.st15{fill:url(#SVGID_16_);}
	.st16{fill:url(#rect4398_1_);}
	.st17{fill:url(#rect4398-8_1_);}
	.st18{clip-path:url(#SVGID_18_);fill:url(#path4516_1_);}
	.st19{display:none;fill:#A3A2A2;}
	.st20{fill:#E2E2E2;}
</style>
<filter  color-interpolation-filters="sRGB" height="1.6016878" id="filter4285" width="1.6818392" x="-0.34091958" y="-0.30084389">
	<feGaussianBlur  id="feGaussianBlur4287" stdDeviation="15.692135"></feGaussianBlur>
</filter>
<filter  color-interpolation-filters="sRGB" height="1.6016878" id="filter4281" width="1.6818392" x="-0.34091958" y="-0.30084389">
	<feGaussianBlur  id="feGaussianBlur4283" stdDeviation="15.692135"></feGaussianBlur>
</filter>
<filter  color-interpolation-filters="sRGB" height="4.8926253" id="filter3909" width="1.7093352" x="-0.35466763" y="-1.9463127">
	<feGaussianBlur  id="feGaussianBlur3911" stdDeviation="74.754651"></feGaussianBlur>
</filter>
<filter  color-interpolation-filters="sRGB" height="2.8435745" id="filter3867" width="1.2221603" x="-0.11108017" y="-0.9217872">
	<feGaussianBlur  id="feGaussianBlur3869" stdDeviation="18.422615"></feGaussianBlur>
</filter>
<g id="svg2" inkscape:version="0.48.2 r9819" sodipodi:docname="iMac.svg" xmlns:cc="http://creativecommons.org/ns#" xmlns:dc="http://purl.org/dc/elements/1.1/" xmlns:inkscape="http://www.inkscape.org/namespaces/inkscape" xmlns:rdf="http://www.w3.org/1999/02/22-rdf-syntax-ns#" xmlns:sodipodi="http://sodipodi.sourceforge.net/DTD/sodipodi-0.dtd" xmlns:svg="http://www.w3.org/2000/svg">
	
		<sodipodi:namedview  bordercolor="#666666" borderopacity="1" gridtolerance="10" guidetolerance="10" id="namedview3857" inkscape:current-layer="svg2" inkscape:cx="1059.1305" inkscape:cy="261.84961" inkscape:pageopacity="0" inkscape:pageshadow="2" inkscape:window-height="988" inkscape:window-maximized="1" inkscape:window-width="1680" inkscape:window-x="-8" inkscape:window-y="-8" inkscape:zoom="1.4230524" objecttolerance="10" pagecolor="#ffffff" showgrid="false">
		</sodipodi:namedview>
	<g id="layer12" transform="translate(0,-45.3)">
	</g>
	<g id="layer2" transform="translate(-340.00073,-22.000996)">
		<g id="layer5">
			
				<linearGradient id="path3928_1_" gradientUnits="userSpaceOnUse" x1="1476.4972" y1="20.044" x2="1476.4972" y2="-2.8109" gradientTransform="matrix(1 0 0 -1 -340.0007 1573.891)">
				<stop  offset="0" style="stop-color:#E6E6E8"/>
				<stop  offset="1" style="stop-color:#6E6E6E"/>
			</linearGradient>
			<path id="path3928" inkscape:connector-curvature="0" class="st0" d="M993.1,1560.3c-0.8,10.6,5.5,17.1,48.2,16.3H1280v-22.8
				L993.1,1560.3z"/>
			<g>
				<defs>
					<path id="SVGID_1_" d="M993.1,1560.3c-0.8,10.6,5.5,17.1,48.2,16.3H1280v-22.8L993.1,1560.3z"/>
				</defs>
				<clipPath id="SVGID_2_">
					<use xlink:href="#SVGID_1_"  style="overflow:visible;"/>
				</clipPath>
				
					<linearGradient id="rect3941_1_" gradientUnits="userSpaceOnUse" x1="1397.4285" y1="37.3603" x2="1450.1105" y2="37.3603" gradientTransform="matrix(1.4201 0 0 -1 -991.4774 1601.2355)">
					<stop  offset="0" style="stop-color:#000000;stop-opacity:0.3922"/>
					<stop  offset="1" style="stop-color:#000000;stop-opacity:0"/>
				</linearGradient>
				<rect id="rect3941" x="993.1" y="1544.8" class="st1" width="74.8" height="38.1"/>
			</g>
		</g>
		<g id="layer6">
			
				<linearGradient id="path3928-8_1_" gradientUnits="userSpaceOnUse" x1="2760.4971" y1="20.044" x2="2760.4971" y2="-2.8109" gradientTransform="matrix(-1 0 0 -1 4184.0005 1573.891)">
				<stop  offset="0" style="stop-color:#E6E6E8"/>
				<stop  offset="1" style="stop-color:#6E6E6E"/>
			</linearGradient>
			<path id="path3928-8" inkscape:connector-curvature="0" class="st2" d="M1566.9,1560.3c0.8,10.6-5.5,17.1-48.2,16.3H1280v-22.8
				L1566.9,1560.3z"/>
			<g>
				<defs>
					<path id="SVGID_3_" d="M1566.9,1560.3c0.8,10.6-5.5,17.1-48.2,16.3H1280v-22.8L1566.9,1560.3z"/>
				</defs>
				<clipPath id="SVGID_4_">
					<use xlink:href="#SVGID_3_"  style="overflow:visible;"/>
				</clipPath>
				
					<linearGradient id="rect3941-5_1_" gradientUnits="userSpaceOnUse" x1="2301.5681" y1="37.3603" x2="2354.2502" y2="37.3603" gradientTransform="matrix(-1.4201 0 0 -1 4835.4771 1601.2355)">
					<stop  offset="0" style="stop-color:#000000;stop-opacity:0.3922"/>
					<stop  offset="1" style="stop-color:#000000;stop-opacity:0"/>
				</linearGradient>
				<rect id="rect3941-5" x="1492.1" y="1544.8" class="st3" width="74.8" height="38.1"/>
			</g>
		</g>
		<g id="layer3">
			
				<linearGradient id="SVGID_5_" gradientUnits="userSpaceOnUse" x1="1884.9072" y1="248.6307" x2="1884.9072" y2="6.5963" gradientTransform="matrix(1 0 0 -1 -604.9071 1573.891)">
				<stop  offset="0" style="stop-color:#808185"/>
				<stop  offset="0.3414" style="stop-color:#C2C3C7"/>
				<stop  offset="0.6726" style="stop-color:#9C9DA1"/>
				<stop  offset="0.7745" style="stop-color:#7A7B7F"/>
				<stop  offset="0.9125" style="stop-color:#A2A3A7"/>
				<stop  offset="1" style="stop-color:#B8B9BD"/>
			</linearGradient>
			<path class="st4" d="M1566.5,1559.1c-2.4-3.2-5.5-5.8-8.3-8.1c-6.7-5.4-16.8-12.2-29.2-19c-8.3-4.7-17.4-8.4-24.3-14
				c-8.3-6.8-14.2-16-17.9-30.6c-2.8-12.7-4.4-25.8-6-37.8c-7.7-56.6-13.1-119-11.6-174.4l-160.8-5c-6,2.2-12,4.2-18.1,6.2
				c-11.9,4-23.9,0.7-33.1-6.4l-166.4,5.2c1.5,55.4-3.9,117.8-11.6,174.4c-1.6,12-3.2,25.1-6,37.8c-3.7,14.6-9.5,23.8-17.9,30.6
				c-7,5.6-16,9.4-24.3,14c-12.3,6.8-22.5,13.6-29.2,19c-2.8,2.3-6,4.9-8.3,8.1c-0.3,0.5-0.5,1-0.5,1.4c0,1.7,2.5,2.8,4.6,3.6
				c7,2.3,20,3,35.6,3.2c8.4,0.1,18.6-0.1,27.9-0.1h437.6c9.3-0.1,19.5,0.1,27.9,0.1c15.6-0.1,28.6-0.9,35.6-3.2
				c2.2-0.8,4.6-1.8,4.6-3.6C1566.9,1560.1,1566.8,1559.7,1566.5,1559.1z"/>
		</g>
		<g id="layer8">
			<g>
				<defs>
					<path id="SVGID_6_" d="M1280,1269.3l-189.2,5.9c1.5,55.4-3.9,117.8-11.6,174.4c-1.6,12-3.2,25.1-6,37.8
						c-3.7,14.6-9.5,23.8-17.9,30.6c-7,5.6-16,9.4-24.3,14c-12.3,6.8-22.5,13.6-29.2,19c-2.8,2.3-6,4.9-8.3,8.1
						c-0.3,0.5-0.5,1-0.5,1.4c0,1.7,2.5,2.8,4.6,3.6c7,2.3,20,3,35.6,3.2c8.4,0.1,18.6-0.1,27.9-0.1H1280h218.8
						c9.3-0.1,19.5,0.1,27.9,0.1c15.6-0.1,28.6-0.9,35.6-3.2c2.2-0.8,4.6-1.8,4.6-3.6c0-0.4-0.1-0.9-0.5-1.4
						c-2.4-3.2-5.5-5.8-8.3-8.1c-6.7-5.4-16.8-12.2-29.2-19c-8.3-4.7-17.4-8.4-24.3-14c-8.3-6.8-14.2-16-17.9-30.6
						c-2.8-12.7-4.4-25.8-6-37.8c-7.7-56.6-13.1-119-11.6-174.4L1280,1269.3z"/>
				</defs>
				<clipPath id="SVGID_7_">
					<use xlink:href="#SVGID_6_"  style="overflow:visible;"/>
				</clipPath>
				<g id="path4182" inkscape:connector-curvature="0" class="st5">
					<path class="st6" d="M993.1,1498.1c31.4-4.7,52.6,13.5,77.3,23.7c-36.8,69.5-73.6,79.8-110.5,100.7l9.6-93.7L993.1,1498.1z"/>
				</g>
			</g>
			<g>
				<defs>
					<path id="SVGID_8_" d="M1280,1269.3l-189.2,5.9c1.5,55.4-3.9,117.8-11.6,174.4c-1.6,12-3.2,25.1-6,37.8
						c-3.7,14.6-9.5,23.8-17.9,30.6c-7,5.6-16,9.4-24.3,14c-12.3,6.8-22.5,13.6-29.2,19c-2.8,2.3-6,4.9-8.3,8.1
						c-0.3,0.5-0.5,1-0.5,1.4c0,1.7,2.5,2.8,4.6,3.6c7,2.3,20,3,35.6,3.2c8.4,0.1,18.6-0.1,27.9-0.1H1280h218.8
						c9.3-0.1,19.5,0.1,27.9,0.1c15.6-0.1,28.6-0.9,35.6-3.2c2.2-0.8,4.6-1.8,4.6-3.6c0-0.4-0.1-0.9-0.5-1.4
						c-2.4-3.2-5.5-5.8-8.3-8.1c-6.7-5.4-16.8-12.2-29.2-19c-8.3-4.7-17.4-8.4-24.3-14c-8.3-6.8-14.2-16-17.9-30.6
						c-2.8-12.7-4.4-25.8-6-37.8c-7.7-56.6-13.1-119-11.6-174.4L1280,1269.3L1280,1269.3z"/>
				</defs>
				<clipPath id="SVGID_9_">
					<use xlink:href="#SVGID_8_"  style="overflow:visible;"/>
				</clipPath>
				<g id="path4182-3" inkscape:connector-curvature="0" class="st7">
					<path class="st6" d="M1566.9,1498.1c-31.4-4.7-52.6,13.5-77.3,23.7c36.8,69.5,73.6,79.8,110.5,100.7l-9.6-93.7L1566.9,1498.1z"
						/>
				</g>
			</g>
		</g>
		<g id="layer4">
			<g>
				<defs>
					<path id="SVGID_10_" d="M1280,1269.3l-189.2,5.9c1.5,55.4-3.9,117.8-11.6,174.4c-1.6,12-3.2,25.1-6,37.8
						c-3.7,14.6-9.5,23.8-17.9,30.6c-7,5.6-16,9.4-24.3,14c-12.3,6.8-22.5,13.6-29.2,19c-2.8,2.3-6,4.9-8.3,8.1
						c-0.3,0.5-0.5,1-0.5,1.4c0,1.7,2.5,2.8,4.6,3.6c7,2.3,20,3,35.6,3.2c8.4,0.1,18.6-0.1,27.9-0.1H1280h218.8
						c9.3-0.1,19.5,0.1,27.9,0.1c15.6-0.1,28.6-0.9,35.6-3.2c2.2-0.8,4.6-1.8,4.6-3.6c0-0.4-0.1-0.9-0.5-1.4
						c-2.4-3.2-5.5-5.8-8.3-8.1c-6.7-5.4-16.8-12.2-29.2-19c-8.3-4.7-17.4-8.4-24.3-14c-8.3-6.8-14.2-16-17.9-30.6
						c-2.8-12.7-4.4-25.8-6-37.8c-7.7-56.6-13.1-119-11.6-174.4L1280,1269.3z"/>
				</defs>
				<clipPath id="SVGID_11_">
					<use xlink:href="#SVGID_10_"  style="overflow:visible;"/>
				</clipPath>
				<g id="rect3853" class="st8">
					<path class="st9" d="M1280,1430.2L1280,1430.2c139.7,0,252.9,10.7,252.9,24l0,0c0,13.2-113.2,24-252.9,24l0,0
						c-139.7,0-252.9-10.7-252.9-24l0,0C1027.1,1440.9,1140.3,1430.2,1280,1430.2z"/>
				</g>
			</g>
		</g>
		<g id="g3887">
			<g>
				<defs>
					<path id="SVGID_12_" d="M1280,1269.3l-189.2,5.9c1.5,55.4-3.9,117.8-11.6,174.4c-1.6,12-3.2,25.1-6,37.8
						c-3.7,14.6-9.5,23.8-17.9,30.6c-7,5.6-16,9.4-24.3,14c-12.3,6.8-22.5,13.6-29.2,19c-2.8,2.3-6,4.9-8.3,8.1
						c-0.3,0.5-0.5,1-0.5,1.4c0,1.7,2.5,2.8,4.6,3.6c7,2.3,20,3,35.6,3.2c8.4,0.1,18.6-0.1,27.9-0.1H1280h218.8
						c9.3-0.1,19.5,0.1,27.9,0.1c15.6-0.1,28.6-0.9,35.6-3.2c2.2-0.8,4.6-1.8,4.6-3.6c0-0.4-0.1-0.9-0.5-1.4
						c-2.4-3.2-5.5-5.8-8.3-8.1c-6.7-5.4-16.8-12.2-29.2-19c-8.3-4.7-17.4-8.4-24.3-14c-8.3-6.8-14.2-16-17.9-30.6
						c-2.8-12.7-4.4-25.8-6-37.8c-7.7-56.6-13.1-119-11.6-174.4L1280,1269.3z"/>
				</defs>
				<clipPath id="SVGID_13_">
					<use xlink:href="#SVGID_12_"  style="overflow:visible;"/>
				</clipPath>
				<g id="rect3889" class="st10">
					<path class="st11" d="M1280,1403.2L1280,1403.2c139.7,0,252.9,20.6,252.9,46.1v0c0,25.5-113.2,46.1-252.9,46.1l0,0
						c-139.7,0-252.9-20.6-252.9-46.1v0C1027.1,1423.9,1140.3,1403.2,1280,1403.2z"/>
				</g>
			</g>
		</g>
		<g id="g3913">
		</g>
	</g>
	<g id="layer9" transform="translate(-340.00073,-22.000996)">
		<path class="st12" d="M2157.7,22H402.3C358.9,22,340,35.3,340,84.3v1165.4c0,49,18.9,62.3,62.3,62.3h1755.4
			c43.4,0,62.3-13.3,62.3-62.3V84.3C2220,35.3,2201.1,22,2157.7,22z M1331.6,1260.5c-13.3,6.5-27.3,11.3-41.3,15.9
			c-19.1,6.4-38.4-5.8-46.2-22.8c-2.2-0.4-4.4-0.7-6.5-1.2c-9.9-1.9-18-9.7-23.2-17.9c-5.7-8.8-6.2-20-3.9-30
			c2.1-9.3,9.8-18.5,17.9-23.2c7.4-4.3,15.3-5.5,23.3-4.8c5.9-14.2,20.8-24.5,36.3-24.5c21.8,0,38,17.8,38.9,38.9c0,0.1,0,0.2,0,0.3
			c1.6,0.7,3.2,1.4,4.7,2.2C1357.2,1205.6,1356.9,1248.1,1331.6,1260.5z"/>
	</g>
	<g id="g4380" transform="translate(-340.00073,-22.000996)">
		
			<linearGradient id="SVGID_14_" gradientUnits="userSpaceOnUse" x1="716.0355" y1="346.822" x2="2560.574" y2="349.1671" gradientTransform="matrix(1 0 0 -1 -340.0007 1573.891)">
			<stop  offset="0" style="stop-color:#A5A6AA"/>
			<stop  offset="1" style="stop-color:#E1E2E4"/>
		</linearGradient>
		<path class="st13" d="M340,1139.8v109.9c0,49,18.9,62.3,62.3,62.3h1755.4c43.4,0,62.3-13.3,62.3-62.3v-109.9L340,1139.8z
			 M1331.6,1260.5c-13.3,6.5-27.3,11.3-41.3,15.9c-19.1,6.4-38.4-5.8-46.2-22.8c-2.2-0.4-4.4-0.7-6.5-1.2c-9.9-1.9-18-9.7-23.2-17.9
			c-5.7-8.8-6.2-20-3.9-30c2.1-9.3,9.8-18.5,17.9-23.2c7.4-4.3,15.3-5.5,23.3-4.8c5.9-14.2,20.8-24.5,36.3-24.5
			c21.8,0,38,17.8,38.9,38.9c0,0.1,0,0.2,0,0.3c1.6,0.7,3.2,1.4,4.7,2.2C1357.2,1205.6,1356.9,1248.1,1331.6,1260.5z"/>
	</g>
	<g id="g4491" transform="translate(-340.00073,-22.000996)">
		
			<linearGradient id="SVGID_15_" gradientUnits="userSpaceOnUse" x1="1524.3866" y1="347.938" x2="1974.0691" y2="347.938" gradientTransform="matrix(1 0 0 -1 -340.0007 1573.891)">
			<stop  offset="0" style="stop-color:#808080"/>
			<stop  offset="1" style="stop-color:#808080;stop-opacity:0"/>
		</linearGradient>
		<path class="st14" d="M340,1139.8v109.9c0,49,18.9,62.3,62.3,62.3h1755.4c43.4,0,62.3-13.3,62.3-62.3v-109.9L340,1139.8z
			 M1331.6,1260.5c-13.3,6.5-27.3,11.3-41.3,15.9c-19.1,6.4-38.4-5.8-46.2-22.8c-2.2-0.4-4.4-0.7-6.5-1.2c-9.9-1.9-18-9.7-23.2-17.9
			c-5.7-8.8-6.2-20-3.9-30c2.1-9.3,9.8-18.5,17.9-23.2c7.4-4.3,15.3-5.5,23.3-4.8c5.9-14.2,20.8-24.5,36.3-24.5
			c21.8,0,38,17.8,38.9,38.9c0,0.1,0,0.2,0,0.3c1.6,0.7,3.2,1.4,4.7,2.2C1357.2,1205.6,1356.9,1248.1,1331.6,1260.5z"/>
	</g>
	<g id="g4495" transform="translate(-340.00073,-22.000996)">
		
			<linearGradient id="SVGID_16_" gradientUnits="userSpaceOnUse" x1="716.0325" y1="349.1666" x2="2560.571" y2="351.5117" gradientTransform="matrix(1 0 0 -1 -340.0007 1573.891)">
			<stop  offset="0" style="stop-color:#A5A6AA"/>
			<stop  offset="1" style="stop-color:#E1E2E4"/>
		</linearGradient>
		<path class="st15" d="M340,1137.5v109.9c0,49,19,62.3,62.3,62.3h1755.9c43.4,0,62.3-13.3,62.3-62.3v-109.9L340,1137.5z
			 M1331.6,1260.5c-13.3,6.5-27.3,11.3-41.3,15.9c-19.1,6.4-38.4-5.8-46.2-22.8c-2.2-0.4-4.4-0.7-6.5-1.2c-9.9-1.9-18-9.7-23.2-17.9
			c-5.7-8.8-6.2-20-3.9-30c2.1-9.3,9.8-18.5,17.9-23.2c7.4-4.3,15.3-5.5,23.3-4.8c5.9-14.2,20.8-24.5,36.3-24.5
			c21.8,0,38,17.8,38.9,38.9c0,0.1,0,0.2,0,0.3c1.6,0.7,3.2,1.4,4.7,2.2C1357.2,1205.6,1356.9,1248.1,1331.6,1260.5z"/>
	</g>
	<g id="layer11" transform="translate(-340.00073,-22.000996)">
		
			<linearGradient id="rect4398_1_" gradientUnits="userSpaceOnUse" x1="680.0007" y1="426.2588" x2="1333.0598" y2="426.2588" gradientTransform="matrix(1 0 0 -1 -340.0007 1567.3209)">
			<stop  offset="0" style="stop-color:#D5D5D7;stop-opacity:0"/>
			<stop  offset="9.579180e-03" style="stop-color:#D5D5D7"/>
			<stop  offset="1" style="stop-color:#E6E6E6"/>
		</linearGradient>
		<rect id="rect4398" x="340" y="1139.9" class="st16" width="653.1" height="2.4"/>
		
			<linearGradient id="rect4398-8_1_" gradientUnits="userSpaceOnUse" x1="1964.0006" y1="426.2589" x2="2617.0596" y2="426.2589" gradientTransform="matrix(-1 0 0 -1 3610.1187 1567.321)">
			<stop  offset="0" style="stop-color:#D5D5D7;stop-opacity:0"/>
			<stop  offset="9.579180e-03" style="stop-color:#D5D5D7"/>
			<stop  offset="1" style="stop-color:#E6E6E6"/>
		</linearGradient>
		<rect id="rect4398-8" x="993.1" y="1139.9" class="st17" width="653.1" height="2.4"/>
	</g>
	<g id="g4376" transform="translate(-340.00073,-22.000996)">
		<path id="path4378" inkscape:connector-curvature="0" d="M402.3,22C358.9,22,340,35.3,340,84.3V149v990.8h1880V149V84.3
			c0-49-18.9-62.3-62.3-62.3h-133.5h-10.1H531.7H402.3z"/>
	</g>
	<g id="layer14" transform="translate(-340.00073,-22.000996)">
		<rect id="rect4535" x="419.1" y="96.4" width="1721.7" height="969.1"/>
	</g>
	<g id="layer13" transform="translate(-340.00073,-22.000996)">
		<g>
			<defs>
				<path id="SVGID_17_" d="M402.3,22C358.9,22,340,35.3,340,84.3V149v990.8h1880V149V84.3c0-49-18.9-62.3-62.3-62.3h-133.5h-10.1
					H531.7H402.3z"/>
			</defs>
			<clipPath id="SVGID_18_">
				<use xlink:href="#SVGID_17_"  style="overflow:visible;"/>
			</clipPath>
			
				<linearGradient id="path4516_1_" gradientUnits="userSpaceOnUse" x1="2201.7798" y1="1760.4788" x2="2647.4751" y2="170.6803" gradientTransform="matrix(1 0 0 -1 -340.0007 1573.891)">
				<stop  offset="0" style="stop-color:#FFFFFF;stop-opacity:0.1961"/>
				<stop  offset="1" style="stop-color:#FFFFFF;stop-opacity:0"/>
			</linearGradient>
			<path id="path4516" inkscape:connector-curvature="0" class="st18" d="M1420.1,9.8l632.5,1414l333.3,21.2l6.4-1511.3L1420.1,9.8z
				"/>
		</g>
	</g>
	<rect x="284" y="1164.9" class="st19" width="192" height="82.4"/>
	<rect x="830" y="1130.9" class="st20" width="192" height="138"/>
</g>
<g id="Layer_2">
</g>
</svg>
